{
	"info": {
		"_postman_id": "d5eea999-bd93-42b5-b1f6-f8ce2b973fb3",
		"name": "Serverless-API",
		"schema": "https://schema.getpostman.com/json/collection/v2.1.0/collection.json"
	},
	"item": [
		{
			"name": "Get Log",
			"request": {
				"method": "GET",
				"header": [],
				"url": {
					"raw": "{{protocol}}://{{server}}/log",
					"protocol": "{{protocol}}",
					"host": [
						"{{server}}"
					],
					"path": [
						"log"
					]
				}
			},
			"response": []
		},
		{
			"name": "Sent Log",
			"request": {
				"method": "POST",
				"header": [],
				"body": {
					"mode": "raw",
					"raw": "{\"log\":\"hello world\"}",
					"options": {
						"raw": {
							"language": "json"
						}
					}
				},
				"url": {
					"raw": "{{protocol}}://{{server}}/log",
					"protocol": "{{protocol}}",
					"host": [
						"{{server}}"
					],
					"path": [
						"log"
					]
				}
			},
			"response": []
		}
	],
	"event": [
		{
			"listen": "prerequest",
			"script": {
				"type": "text/javascript",
				"exec": [
					""
				]
			}
		},
		{
			"listen": "test",
			"script": {
				"type": "text/javascript",
				"exec": [
					""
				]
			}
		}
	],
	"variable": [
		{
			"key": "server",
			"value": "localhost:3000"
		},
		{
			"value": "",
			"disabled": true
		},
		{
			"key": "protocol",
			"value": "http"
		}
	]
}